%YAML 1.1
%TAG !u! tag:unity3d.com,2011:
--- !u!74 &7400000
AnimationClip:
  m_ObjectHideFlags: 0
  m_CorrespondingSourceObject: {fileID: 0}
  m_PrefabInstance: {fileID: 0}
  m_PrefabAsset: {fileID: 0}
  m_Name: Rhino
  serializedVersion: 6
  m_Legacy: 0
  m_Compressed: 0
  m_UseHighQualityCurve: 1
  m_RotationCurves: []
  m_CompressedRotationCurves: []
  m_EulerCurves: []
  m_PositionCurves: []
  m_ScaleCurves: []
  m_FloatCurves: []
  m_PPtrCurves:
  - curve:
    - time: 0
      value: {fileID: -5040895973775058801, guid: 9304e637ada7169468725cd12a2b3553,
        type: 3}
    - time: 0.083333336
      value: {fileID: 1674459119405698651, guid: 9304e637ada7169468725cd12a2b3553,
        type: 3}
    - time: 0.16666667
      value: {fileID: 1495829384554848484, guid: 9304e637ada7169468725cd12a2b3553,
        type: 3}
    - time: 0.21666667
      value: {fileID: 3775681114589744356, guid: 9304e637ada7169468725cd12a2b3553,
        type: 3}
    - time: 0.28333333
      value: {fileID: -4455088955160428412, guid: 9304e637ada7169468725cd12a2b3553,
        type: 3}
    - time: 0.38333333
      value: {fileID: -1656794026248960011, guid: 9304e637ada7169468725cd12a2b3553,
        type: 3}
    - time: 0.46666667
      value: {fileID: -915794892352822985, guid: 9304e637ada7169468725cd12a2b3553,
        type: 3}
    - time: 0.55
      value: {fileID: 4343294896984310625, guid: 9304e637ada7169468725cd12a2b3553,
        type: 3}
    - time: 0.6166667
      value: {fileID: -5815246157630239672, guid: 9304e637ada7169468725cd12a2b3553,
        type: 3}
    - time: 0.68333334
      value: {fileID: 2249274564264236949, guid: 9304e637ada7169468725cd12a2b3553,
        type: 3}
    - time: 0.76666665
      value: {fileID: -1896407100727344589, guid: 9304e637ada7169468725cd12a2b3553,
        type: 3}
    - time: 0.85
      value: {fileID: 4808912173833112646, guid: 9304e637ada7169468725cd12a2b3553,
        type: 3}
    - time: 0.9166667
      value: {fileID: 1517976645502789785, guid: 9304e637ada7169468725cd12a2b3553,
        type: 3}
    attribute: m_Sprite
    path: 
    classID: 212
    script: {fileID: 0}
  m_SampleRate: 60
  m_WrapMode: 0
  m_Bounds:
    m_Center: {x: 0, y: 0, z: 0}
    m_Extent: {x: 0, y: 0, z: 0}
  m_ClipBindingConstant:
    genericBindings:
    - serializedVersion: 2
      path: 0
      attribute: 0
      script: {fileID: 0}
      typeID: 212
      customType: 23
      isPPtrCurve: 1
    pptrCurveMapping:
    - {fileID: -5040895973775058801, guid: 9304e637ada7169468725cd12a2b3553, type: 3}
    - {fileID: 1674459119405698651, guid: 9304e637ada7169468725cd12a2b3553, type: 3}
    - {fileID: 1495829384554848484, guid: 9304e637ada7169468725cd12a2b3553, type: 3}
    - {fileID: 3775681114589744356, guid: 9304e637ada7169468725cd12a2b3553, type: 3}
    - {fileID: -4455088955160428412, guid: 9304e637ada7169468725cd12a2b3553, type: 3}
    - {fileID: -1656794026248960011, guid: 9304e637ada7169468725cd12a2b3553, type: 3}
    - {fileID: -915794892352822985, guid: 9304e637ada7169468725cd12a2b3553, type: 3}
    - {fileID: 4343294896984310625, guid: 9304e637ada7169468725cd12a2b3553, type: 3}
    - {fileID: -5815246157630239672, guid: 9304e637ada7169468725cd12a2b3553, type: 3}
    - {fileID: 2249274564264236949, guid: 9304e637ada7169468725cd12a2b3553, type: 3}
    - {fileID: -1896407100727344589, guid: 9304e637ada7169468725cd12a2b3553, type: 3}
    - {fileID: 4808912173833112646, guid: 9304e637ada7169468725cd12a2b3553, type: 3}
    - {fileID: 1517976645502789785, guid: 9304e637ada7169468725cd12a2b3553, type: 3}
  m_AnimationClipSettings:
    serializedVersion: 2
    m_AdditiveReferencePoseClip: {fileID: 0}
    m_AdditiveReferencePoseTime: 0
    m_StartTime: 0
    m_StopTime: 0.93333334
    m_OrientationOffsetY: 0
    m_Level: 0
    m_CycleOffset: 0
    m_HasAdditiveReferencePose: 0
    m_LoopTime: 1
    m_LoopBlend: 0
    m_LoopBlendOrientation: 0
    m_LoopBlendPositionY: 0
    m_LoopBlendPositionXZ: 0
    m_KeepOriginalOrientation: 0
    m_KeepOriginalPositionY: 1
    m_KeepOriginalPositionXZ: 0
    m_HeightFromFeet: 0
    m_Mirror: 0
  m_EditorCurves: []
  m_EulerEditorCurves: []
  m_HasGenericRootTransform: 0
  m_HasMotionFloatCurves: 0
  m_Events: []
