%YAML 1.1
%TAG !u! tag:unity3d.com,2011:
--- !u!1045 &1
EditorBuildSettings:
  m_ObjectHideFlags: 0
  serializedVersion: 2
  m_Scenes:
  - enabled: 1
    path: Assets/GameAssets/Scenes/GameMenu.unity
    guid: 7ec94d22e468c6540a02eb0ebba353ae
  - enabled: 1
    path: Assets/GameAssets/Scenes/GamePlay.unity
    guid: 2cda990e2423bbf4892e6590ba056729
  - enabled: 1
    path: Assets/GameAssets/Scenes/Won.unity
    guid: 63ac41530ccc94f46afa22182ed1541a
  - enabled: 1
    path: Assets/GameAssets/Scenes/Lost.unity
    guid: 8f948f323cb96af45b403d5d51c92ea9
  - enabled: 1
    path: Assets/GameAssets/Scenes/BonusA.unity
    guid: 1eca60c2fddbc2a40b478875810c4b5b
  - enabled: 1
    path: Assets/GameAssets/Scenes/BonusB.unity
    guid: 1dcbc7608c1e257498f58a4289517c25
  - enabled: 1
    path: Assets/GameAssets/Scenes/BonusC.unity
    guid: 1042cbe0b56f599488f366e56a4252cc
  m_configObjects: {}
